<svg xmlns="http://www.w3.org/2000/svg" width="38" height="38" viewBox="0 0 38 38">
  <g id="Unofficial_JavaScript_logo_2" transform="translate(0.5 0.5)">
    <rect id="Rectangle_27" data-name="Rectangle 27" width="37" height="37" fill="none" stroke="#141414" stroke-width="1" opacity="0.5"/>
    <path id="Path_43" data-name="Path 43" d="M180.992,298.006a3.787,3.787,0,0,0,3.43,2.111c1.441,0,2.361-.72,2.361-1.715,0-1.192-.946-1.615-2.531-2.308l-.869-.373c-2.509-1.069-4.176-2.408-4.176-5.239,0-2.608,1.987-4.593,5.092-4.593a5.139,5.139,0,0,1,4.945,2.784l-2.707,1.738a2.365,2.365,0,0,0-2.238-1.49,1.513,1.513,0,0,0-1.664,1.49c0,1.043.646,1.465,2.138,2.111l.869.372c2.954,1.267,4.622,2.558,4.622,5.462,0,3.13-2.459,4.845-5.761,4.845a6.68,6.68,0,0,1-6.336-3.556Zm-12.282.3c.546.969,1.043,1.788,2.238,1.788,1.142,0,1.863-.447,1.863-2.185V286.089h3.477v11.869c0,3.6-2.111,5.239-5.192,5.239a5.4,5.4,0,0,1-5.216-3.176Z" transform="translate(-156.138 -269.1)" fill="#141414" opacity="0.5"/>
  </g>
</svg>
