// Jest Snapshot v1, https://goo.gl/fbAQLP

exports[`Header closes mobile nav 1`] = `
<header
  className="header"
>
  <ul
    className="header-wrapper"
  >
    <li
      className="header-item header-item-logo"
    >
      Alicja Kozik
    </li>
    <li
      className="header-item header-item--hamburger"
    >
      <HamburgerButton
        id="hamburger-button"
        onClick={[Function]}
        opened={false}
      />
    </li>
    <li
      className="header-item header-item--desktop"
    >
      <a
        href="#"
      >
        <Trans
          i18nKey="navigation-home"
        />
      </a>
    </li>
    <li
      className="header-item header-item--desktop"
    >
      <a
        href="#"
      >
        <Trans
          i18nKey="navigation-about-me"
        />
      </a>
    </li>
    <li
      className="header-item header-item--desktop"
    >
      <a
        href="#"
      >
        <Trans
          i18nKey="navigation-projects"
        />
      </a>
    </li>
    <li
      className="header-item header-item--desktop"
    >
      <a
        href="#"
      >
        <Trans
          i18nKey="navigation-contact"
        />
      </a>
    </li>
  </ul>
  <NavBarMobile
    language={
      Object {
        "code": "pl",
        "icon": <test-file-stub />,
        "name": "Polish",
      }
    }
    onChange={[Function]}
    opened={false}
  />
</header>
`;

exports[`Header opens mobile nav 1`] = `
<header
  className="header"
>
  <ul
    className="header-wrapper"
  >
    <li
      className="header-item header-item-logo"
    >
      Alicja Kozik
    </li>
    <li
      className="header-item header-item--hamburger"
    >
      <HamburgerButton
        id="hamburger-button"
        onClick={[Function]}
        opened={true}
      />
    </li>
    <li
      className="header-item header-item--desktop"
    >
      <a
        href="#"
      >
        <Trans
          i18nKey="navigation-home"
        />
      </a>
    </li>
    <li
      className="header-item header-item--desktop"
    >
      <a
        href="#"
      >
        <Trans
          i18nKey="navigation-about-me"
        />
      </a>
    </li>
    <li
      className="header-item header-item--desktop"
    >
      <a
        href="#"
      >
        <Trans
          i18nKey="navigation-projects"
        />
      </a>
    </li>
    <li
      className="header-item header-item--desktop"
    >
      <a
        href="#"
      >
        <Trans
          i18nKey="navigation-contact"
        />
      </a>
    </li>
  </ul>
  <NavBarMobile
    language={
      Object {
        "code": "pl",
        "icon": <test-file-stub />,
        "name": "Polish",
      }
    }
    onChange={[Function]}
    opened={true}
  />
</header>
`;

exports[`Header renders 1`] = `
<header
  className="header"
>
  <ul
    className="header-wrapper"
  >
    <li
      className="header-item header-item-logo"
    >
      Alicja Kozik
    </li>
    <li
      className="header-item header-item--hamburger"
    >
      <HamburgerButton
        id="hamburger-button"
        onClick={[Function]}
        opened={false}
      />
    </li>
    <li
      className="header-item header-item--desktop"
    >
      <a
        href="#"
      >
        <Trans
          i18nKey="navigation-home"
        />
      </a>
    </li>
    <li
      className="header-item header-item--desktop"
    >
      <a
        href="#"
      >
        <Trans
          i18nKey="navigation-about-me"
        />
      </a>
    </li>
    <li
      className="header-item header-item--desktop"
    >
      <a
        href="#"
      >
        <Trans
          i18nKey="navigation-projects"
        />
      </a>
    </li>
    <li
      className="header-item header-item--desktop"
    >
      <a
        href="#"
      >
        <Trans
          i18nKey="navigation-contact"
        />
      </a>
    </li>
  </ul>
  <NavBarMobile
    language={
      Object {
        "code": "pl",
        "icon": <test-file-stub />,
        "name": "Polish",
      }
    }
    onChange={[Function]}
    opened={false}
  />
</header>
`;
